{
    "name": "split_hma_batches_record",
    "function_id": "9a466e14-a77d-4f2d-8eca-350326459b96",
    "version_id": "62880684-957d-4e40-a5cc-e907d1bf4d8d",
    "config": [
      {

        "fieldType": "textbox",
        "config_path": "config.functionconfiguration.NUM_CLAIMS_PER_FILES",
        "data_type": "string",
        "description": "",
        "hidden": false,
        "multi_select": false,
        "name": "Numbers_of_claims",
        "op_type": "continuous",
        "ui_component": "",
        "value": null,
        "_XpmsObjectMixin__api_version": "1.0.13",
        "_XpmsObjectMixin__type": "StringConfiguration"
      }
    ]
  }

